…
Error in eval(expr, envir, enclos): 
      Look at the examples for gather and determine what the names of the
      key and value columns should be for our data.
      (hint: you can use example(gather) to run them automatically).

Now that we have our keys and values, we can plug them into gather().

Note, however, this uses “bare” names (names that are not between quotation marks) to specify columns. This is a feature of the tidyverse to make typing easier, but does not necessarily work outside of the tidyverse.

To avoid typing all of the columns we want to collapse, we’ll simply specify the column that we don’t want to collapse, which is Julian.Date. This is done by placing a minus (-) symbol in front of it.

> con.tidy <- gather(data = control, key = Cultivar, value = Severity, -Julian.Date)
> con.tidy

# A tibble: 27 x 3
   Julian.Date                  Cultivar Severity
         <int>                     <chr>    <dbl>
 1          97 TwentyOneThirtySevenWheat     0.00
 2         104 TwentyOneThirtySevenWheat     0.00
 3         111 TwentyOneThirtySevenWheat     0.00
 4         118 TwentyOneThirtySevenWheat     0.00
 5         125 TwentyOneThirtySevenWheat     0.00
 6         132 TwentyOneThirtySevenWheat     0.00
 7         139 TwentyOneThirtySevenWheat     2.34
 8         146 TwentyOneThirtySevenWheat     7.56
 9         154 TwentyOneThirtySevenWheat    28.78
10          97               CutterWheat     0.00
# ... with 17 more rows
…
Now we can tidy our treatment data.

> trt.tidy <- gather(data = treatment, key = Cultivar, value = Severity, -Julian.Date)

Step 3: combining experiments

We can combine the treatments by using the dplyr function bind_rows(), which takes any number of data frames and places them on top of one another. It takes an optional argument, .id (note the “.”) that specifies a separate column to create identifying the source data frame.

> fungicide.tidy <- bind_rows(control = con.tidy, fungicide = trt.tidy, .id = "Experiment")
> fungicide.tidy

# A tibble: 54 x 4
   Experiment Julian.Date                  Cultivar Severity
        <chr>       <int>                     <chr>    <dbl>
 1    control          97 TwentyOneThirtySevenWheat     0.00
 2    control         104 TwentyOneThirtySevenWheat     0.00
 3    control         111 TwentyOneThirtySevenWheat     0.00
 4    control         118 TwentyOneThirtySevenWheat     0.00
 5    control         125 TwentyOneThirtySevenWheat     0.00
 6    control         132 TwentyOneThirtySevenWheat     0.00
 7    control         139 TwentyOneThirtySevenWheat     2.34
 8    control         146 TwentyOneThirtySevenWheat     7.56
 9    control         154 TwentyOneThirtySevenWheat    28.78
10    control          97               CutterWheat     0.00
# ... with 44 more rows
…
